\relax 
\providecommand\hyper@newdestlabel[2]{}
\providecommand*{\memsetcounter}[2]{}
\@nameuse{es@quoting}
\providecommand\HyperFirstAtBeginDocument{\AtBeginDocument}
\HyperFirstAtBeginDocument{\ifx\hyper@anchor\@undefined
\global\let\oldcontentsline\contentsline
\gdef\contentsline#1#2#3#4{\oldcontentsline{#1}{#2}{#3}}
\global\let\oldnewlabel\newlabel
\gdef\newlabel#1#2{\newlabelxx{#1}#2}
\gdef\newlabelxx#1#2#3#4#5#6{\oldnewlabel{#1}{{#2}{#3}}}
\AtEndDocument{\ifx\hyper@anchor\@undefined
\let\contentsline\oldcontentsline
\let\newlabel\oldnewlabel
\fi}
\fi}
\global\let\hyper@last\relax 
\gdef\HyperFirstAtBeginDocument#1{#1}
\providecommand\HyField@AuxAddToFields[1]{}
\providecommand\HyField@AuxAddToCoFields[2]{}
\select@language{spanish}
\@writefile{toc}{\select@language{spanish}}
\@writefile{lof}{\select@language{spanish}}
\@writefile{lot}{\select@language{spanish}}
\@writefile{toc}{\par \penalty \@M \unhbox \voidb@x \hbox {}\hfill {\bfseries  P\'agina}\par \penalty \@M }
\citation{Murray2012}
\citation{Schoenmakers2000}
\citation{Murray2012}
\citation{Poole2012}
\citation{Poole2012}
\@writefile{lot}{\par \penalty \@M \textbf  {{\scshape  Tabla} \hfill P\'agina}\par \penalty \@M }
\@writefile{toc}{\contentsline {chapter}{\'{I}ndice de figuras}{iii}{section*.1}}
\citation{Almstetter2012}
\@writefile{lof}{\par \penalty \@M \textbf  {{\scshape  Figura} \hfill P\'agina}\par \penalty \@M }
\citation{Gomez-Cabrero2014,Saito2006}
\citation{Zhang2007,Yang2018}
\citation{Shokralla2012}
\citation{Izadmanesh2017}
\citation{Mathew2013}
\citation{Tugizimana2018}
\citation{Covington2017}
\citation{Golla2017}
\citation{Turi2018a}
\citation{McCartney2018}
\@writefile{lof}{\addvspace {10pt}}
\@writefile{lot}{\addvspace {10pt}}
\@writefile{toc}{\contentsline {chapter}{\chapternumberline {1}Introducci\'on}{1}{chapter.1}}
\newlabel{chap:intro}{{\M@TitleReference {1}{Introducci\'on}}{1}{Introducci\'on}{chapter.1}{}}
\@writefile{toc}{\contentsline {section}{\numberline {1.1}Marco Te\'orico}{1}{section.1.1}}
\citation{Yi2016}
\citation{Izadmanesh2017}
\citation{Zhang2012,Tugizimana2018}
\citation{Mathew2013,Gowda2008}
\citation{Urbanczyk-Wochniak2003}
\citation{Horning1971}
\citation{Nicholson1999}
\citation{Mathew2013}
\@writefile{toc}{\contentsline {subsection}{\numberline {1.1.1}Metabol\'omica}{2}{subsection.1.1.1}}
\newlabel{sec:Metabolomic}{{\M@TitleReference {1.1.1}{Metabol\'omica}}{2}{Metabol\'omica}{subsection.1.1.1}{}}
\citation{Mathew2013}
\citation{Zhang2012}
\@writefile{lof}{\contentsline {figure}{\numberline {1.1}{\ignorespaces Flujo funcional que parte desde los genes hasta los metabolismo. Las lineas entrecortadas delimitan el conjunto de funciones de las biomol\'eculas. Tambi\'en se incluye la t\'ecnica \'omica por la cual son estudiadas y el sistema de detecci\'on.}}{3}{figure.1.1}}
\newlabel{fig:DogmaCentral}{{\M@TitleReference {1.1}{Flujo funcional que parte desde los genes hasta los metabolismo. Las lineas entrecortadas delimitan el conjunto de funciones de las biomol\'eculas. Tambi\'en se incluye la t\'ecnica \'omica por la cual son estudiadas y el sistema de detecci\'on.}}{3}{Flujo funcional que parte desde los genes hasta los metabolismo. Las lineas entrecortadas delimitan el conjunto de funciones de las biomol\'eculas. Tambi\'en se incluye la t\'ecnica \'omica por la cual son estudiadas y el sistema de detecci\'on}{figure.1.1}{}}
\@writefile{toc}{\contentsline {subsubsection}{\numberline {1.1.1.1}Metabol\'omica direccionada}{3}{subsubsection.1.1.1.1}}
\citation{Nobeli2003}
\citation{Palsson2006}
\citation{Goodacre2007}
\citation{DelaMata2017}
\citation{Wong2017}
\citation{Pegolo2017}
\citation{Cuzuel2017}
\citation{Putz2018}
\citation{Gowda2008}
\citation{Nasstrom2018}
\citation{Goodacre2007}
\citation{Yang2018}
\citation{Ouyang2018}
\citation{Lian2018}
\citation{Garcia2017}
\citation{Wang2017}
\citation{Almstetter2012}
\citation{Kim2010}
\@writefile{toc}{\contentsline {subsubsection}{\numberline {1.1.1.2}Metabol\'omica no Direccionada}{4}{subsubsection.1.1.1.2}}
\newlabel{subsec:untargeted}{{\M@TitleReference {1.1.1.2}{Metabol\'omica no Direccionada}}{4}{Metabol\'omica no Direccionada}{subsubsection.1.1.1.2}{}}
\@writefile{toc}{\contentsline {subsection}{\numberline {1.1.2}T\'ecnicas anal\'iticas empleadas}{4}{subsection.1.1.2}}
\newlabel{sec:AnalitycalTech}{{\M@TitleReference {1.1.2}{T\'ecnicas anal\'iticas empleadas}}{4}{T\'ecnicas anal\'iticas empleadas}{subsection.1.1.2}{}}
\citation{Miura2012}
\citation{Thunig2011}
\citation{James1952}
\citation{James1952a}
\citation{Poole2012}
\citation{Amigo2010,Villermaux1987}
\citation{Liu1991}
\citation{Murray2012}
\@writefile{toc}{\contentsline {subsection}{\numberline {1.1.3}Cromatograf\'ia Gaseosa}{5}{subsection.1.1.3}}
\newlabel{subsec:GC}{{\M@TitleReference {1.1.3}{Cromatograf\'ia Gaseosa}}{5}{Cromatograf\'ia Gaseosa}{subsection.1.1.3}{}}
\citation{Murray2012}
\citation{Murray2012}
\citation{Murray2012}
\@writefile{toc}{\contentsline {subsubsection}{\numberline {1.1.3.1}Cromatograf\'ia gaseosa bidimensional}{6}{subsubsection.1.1.3.1}}
\newlabel{subsubsec:2DGC}{{\M@TitleReference {1.1.3.1}{Cromatograf\'ia gaseosa bidimensional}}{6}{Cromatograf\'ia gaseosa bidimensional}{subsubsection.1.1.3.1}{}}
\newlabel{par:advantages}{{\M@TitleReference {1.1.3.1.1}{Ventajas}}{6}{Ventajas}{paragraph.1.1.3.1.1}{}}
\@writefile{toc}{\contentsline {paragraph}{\numberline {1.1.3.1.1}Ventajas}{6}{paragraph.1.1.3.1.1}}
\newlabel{subpar:signalEnha}{{\M@TitleReference {1.1.3.1.1.1}{Mejoramiento de se\~nal}}{6}{Mejoramiento de se\~nal}{subparagraph.1.1.3.1.1.1}{}}
\@writefile{toc}{\contentsline {subparagraph}{\numberline {1.1.3.1.1.1}Mejoramiento de se\~nal}{6}{subparagraph.1.1.3.1.1.1}}
\citation{Giddings1995}
\citation{Schoenmakers2000}
\@writefile{lof}{\contentsline {figure}{\numberline {1.2}{\ignorespaces Representaci\'on esquem\'atica de CGB. (a) Instrumentaci\'on que consta principalmente por tener dos columnas, y un modulador que se encarga de transferir la muestra de la primera columna hacia la segunda. (b) Cromatograma de una muestra hipot\'tetica que contiene dos compuestos al final de la primera columna. (c) Cromatograma tipo contorno de la muestra a la salida de la segunda columna. (d) Cromatograma tridimensional de la muestra; donde la primera y segunda dimensi\'on es el tiempo de retenci\'on, mientras la tercera es la intensidad de la se\~nal. *Dependiendo el modelo del cromat\'ografo, puede o no tener un segundo horno. Adaptado de \cite  {Murray2012}.}}{7}{figure.1.2}}
\newlabel{fig:GCxGC}{{\M@TitleReference {1.2}{Representaci\'on esquem\'atica de CGB. (a) Instrumentaci\'on que consta principalmente por tener dos columnas, y un modulador que se encarga de transferir la muestra de la primera columna hacia la segunda. (b) Cromatograma de una muestra hipot\'tetica que contiene dos compuestos al final de la primera columna. (c) Cromatograma tipo contorno de la muestra a la salida de la segunda columna. (d) Cromatograma tridimensional de la muestra; donde la primera y segunda dimensi\'on es el tiempo de retenci\'on, mientras la tercera es la intensidad de la se\~nal. *Dependiendo el modelo del cromat\'ografo, puede o no tener un segundo horno. Adaptado de \cite  {Murray2012}.}}{7}{Representaci\'on esquem\'atica de CGB. (a) Instrumentaci\'on que consta principalmente por tener dos columnas, y un modulador que se encarga de transferir la muestra de la primera columna hacia la segunda. (b) Cromatograma de una muestra hipot\'tetica que contiene dos compuestos al final de la primera columna. (c) Cromatograma tipo contorno de la muestra a la salida de la segunda columna. (d) Cromatograma tridimensional de la muestra; donde la primera y segunda dimensi\'on es el tiempo de retenci\'on, mientras la tercera es la intensidad de la se\~nal. *Dependiendo el modelo del cromat\'ografo, puede o no tener un segundo horno. Adaptado de \cite {Murray2012}}{figure.1.2}{}}
\@writefile{toc}{\contentsline {subparagraph}{\numberline {1.1.3.1.1.2}Cromatogramas estructurados}{7}{subparagraph.1.1.3.1.1.2}}
\citation{Schoenmakers2000}
\citation{Schoenmakers2000}
\citation{Wilson2011}
\@writefile{lof}{\contentsline {figure}{\numberline {1.3}{\ignorespaces Representaci\'o de cromatogramas estructurada de una mezcla hidrocarburos. (a) Existe una separaci\'on en la segunda dimensi\'on por la aromaticidad; donde aquellos compuestos con un solo anillo tienen tiempos de retenci\'on mayores, mientras alquenos lineares y c\'iclicos son menos retenidos en la segunda columna. Los compuestos de un mismo tipo se agrupan horizontalmente en el cromatograma. (b) Separaci\'on de un mismo tipo de compuestos (n-alcanos) para diferenciaci\'on dentro de este grupo grupo. Adaptado de \cite  {Schoenmakers2000}.}}{8}{figure.1.3}}
\newlabel{fig:structured2DGC}{{\M@TitleReference {1.3}{Representaci\'o de cromatogramas estructurada de una mezcla hidrocarburos. (a) Existe una separaci\'on en la segunda dimensi\'on por la aromaticidad; donde aquellos compuestos con un solo anillo tienen tiempos de retenci\'on mayores, mientras alquenos lineares y c\'iclicos son menos retenidos en la segunda columna. Los compuestos de un mismo tipo se agrupan horizontalmente en el cromatograma. (b) Separaci\'on de un mismo tipo de compuestos (n-alcanos) para diferenciaci\'on dentro de este grupo grupo. Adaptado de \cite  {Schoenmakers2000}.}}{8}{Representaci\'o de cromatogramas estructurada de una mezcla hidrocarburos. (a) Existe una separaci\'on en la segunda dimensi\'on por la aromaticidad; donde aquellos compuestos con un solo anillo tienen tiempos de retenci\'on mayores, mientras alquenos lineares y c\'iclicos son menos retenidos en la segunda columna. Los compuestos de un mismo tipo se agrupan horizontalmente en el cromatograma. (b) Separaci\'on de un mismo tipo de compuestos (n-alcanos) para diferenciaci\'on dentro de este grupo grupo. Adaptado de \cite {Schoenmakers2000}}{figure.1.3}{}}
\citation{Murray2012}
\citation{Murray2012}
\citation{Tranchida2018}
\@writefile{toc}{\contentsline {subparagraph}{\numberline {1.1.3.1.1.3}Capacidad de pico}{9}{subparagraph.1.1.3.1.1.3}}
\newlabel{eq:peakCapacity}{{1.1}{9}{Capacidad de pico}{equation.1.1.1}{}}
\@writefile{lof}{\contentsline {figure}{\numberline {1.4}{\ignorespaces Capacidad de picos en CGB. El resultado de $n$ es el producto de la capacidad de pico de la primera y segunda dimensi\'on. Adaptado de \cite  {Murray2012}.}}{9}{figure.1.4}}
\newlabel{fig:peakCapacity}{{\M@TitleReference {1.4}{Capacidad de picos en CGB. El resultado de $n$ es el producto de la capacidad de pico de la primera y segunda dimensi\'on. Adaptado de \cite  {Murray2012}.}}{9}{Capacidad de picos en CGB. El resultado de $n$ es el producto de la capacidad de pico de la primera y segunda dimensi\'on. Adaptado de \cite {Murray2012}}{figure.1.4}{}}
\@writefile{toc}{\contentsline {paragraph}{\numberline {1.1.3.1.2}Modos de operaci\'on}{9}{paragraph.1.1.3.1.2}}
\newlabel{subpar:GC-GC}{{\M@TitleReference {1.1.3.1.2.1}{Cromatograf\'ia gaseosa bidimensional parcial}}{9}{Cromatograf\'ia gaseosa bidimensional parcial}{subparagraph.1.1.3.1.2.1}{}}
\@writefile{toc}{\contentsline {subparagraph}{\numberline {1.1.3.1.2.1}Cromatograf\'ia gaseosa bidimensional parcial}{9}{subparagraph.1.1.3.1.2.1}}
\citation{Poole2012}
\citation{Poole2012}
\citation{Liu1991}
\citation{Straczynski2018,Tranchida2018,Almstetter2012}
\@writefile{lof}{\contentsline {figure}{\numberline {1.5}{\ignorespaces Ejemplificaci\'on de cromatograf\'ia en el modo de operaci\'on \textit  {heartcutting}. (a) El cromatograma de una mezcla la cual ha sido separada por completo, las lineas entrecortadas representan las fracciones que contienen los anlitos de inter\'es (*). (b) Cromatograma con el modo de operaci\'on \textit  {heart cutting} en donde solo las fracciones que contienen el analito de inter\'es es reconcentrada e inyectada en la segunda columna. Adaptado de \cite  {Poole2012}}}{10}{figure.1.5}}
\newlabel{fig:GC-GC}{{\M@TitleReference {1.5}{Ejemplificaci\'on de cromatograf\'ia en el modo de operaci\'on \textit  {heartcutting}. (a) El cromatograma de una mezcla la cual ha sido separada por completo, las lineas entrecortadas representan las fracciones que contienen los anlitos de inter\'es (*). (b) Cromatograma con el modo de operaci\'on \textit  {heart cutting} en donde solo las fracciones que contienen el analito de inter\'es es reconcentrada e inyectada en la segunda columna. Adaptado de \cite  {Poole2012}}}{10}{Ejemplificaci\'on de cromatograf\'ia en el modo de operaci\'on \textit {heartcutting}. (a) El cromatograma de una mezcla la cual ha sido separada por completo, las lineas entrecortadas representan las fracciones que contienen los anlitos de inter\'es (*). (b) Cromatograma con el modo de operaci\'on \textit {heart cutting} en donde solo las fracciones que contienen el analito de inter\'es es reconcentrada e inyectada en la segunda columna. Adaptado de \cite {Poole2012}}{figure.1.5}{}}
\newlabel{subpar:GCxGC}{{\M@TitleReference {1.1.3.1.2.2}{Cromatograf\'ia gaseosa bidimensional completa}}{10}{Cromatograf\'ia gaseosa bidimensional completa}{subparagraph.1.1.3.1.2.2}{}}
\citation{Poole2012}
\citation{Poole2012}
\citation{Almstetter2012}
\citation{Almstetter2012}
\citation{Almstetter2012}
\@writefile{toc}{\contentsline {subparagraph}{\numberline {1.1.3.1.2.2}Cromatograf\'ia gaseosa bidimensional completa}{11}{subparagraph.1.1.3.1.2.2}}
\@writefile{toc}{\contentsline {paragraph}{\numberline {1.1.3.1.3}Casos de estudio}{11}{paragraph.1.1.3.1.3}}
\@writefile{toc}{\contentsline {subparagraph}{\numberline {1.1.3.1.3.1}Biofluido}{11}{subparagraph.1.1.3.1.3.1}}
\@writefile{lof}{\contentsline {figure}{\numberline {1.6}{\ignorespaces Cromatograma bidimensional de la CGB completa para una mezcla. (a) Sin el tiempo de modulaci\'on los compuestos se presentan como manchas diagonales. Sin la modulaci\'on, el flujo de salida de la primera columna pasa directamente a la segunda columna. (b) Cromatograma con tiempo un determinado tiempo de modulaci\'on. En este, la modulaic\'on reconcentra la muestra en un intervalo de tiempo antes de inyectarla a la segunda columna. Adaptado de \cite  {Poole2012}.}}{12}{figure.1.6}}
\newlabel{fig:GC_comprehensive}{{\M@TitleReference {1.6}{Cromatograma bidimensional de la CGB completa para una mezcla. (a) Sin el tiempo de modulaci\'on los compuestos se presentan como manchas diagonales. Sin la modulaci\'on, el flujo de salida de la primera columna pasa directamente a la segunda columna. (b) Cromatograma con tiempo un determinado tiempo de modulaci\'on. En este, la modulaic\'on reconcentra la muestra en un intervalo de tiempo antes de inyectarla a la segunda columna. Adaptado de \cite  {Poole2012}.}}{12}{Cromatograma bidimensional de la CGB completa para una mezcla. (a) Sin el tiempo de modulaci\'on los compuestos se presentan como manchas diagonales. Sin la modulaci\'on, el flujo de salida de la primera columna pasa directamente a la segunda columna. (b) Cromatograma con tiempo un determinado tiempo de modulaci\'on. En este, la modulaic\'on reconcentra la muestra en un intervalo de tiempo antes de inyectarla a la segunda columna. Adaptado de \cite {Poole2012}}{figure.1.6}{}}
\@writefile{lof}{\contentsline {figure}{\numberline {1.7}{\ignorespaces Gr\'afica de barras de los estudios de metabol\'omica realizados con $GC\times GC$. Estas categor\'ias con agrupadas en miscel\'aneas, tejidos, muestras vegetales, microorganismos, y biofluidos con un n = 65. Datos adaptados de \cite  {Almstetter2012}.}}{12}{figure.1.7}}
\newlabel{fig:reviewBar}{{\M@TitleReference {1.7}{Gr\'afica de barras de los estudios de metabol\'omica realizados con $GC\times GC$. Estas categor\'ias con agrupadas en miscel\'aneas, tejidos, muestras vegetales, microorganismos, y biofluidos con un n = 65. Datos adaptados de \cite  {Almstetter2012}.}}{12}{Gr\'afica de barras de los estudios de metabol\'omica realizados con $GC\times GC$. Estas categor\'ias con agrupadas en miscel\'aneas, tejidos, muestras vegetales, microorganismos, y biofluidos con un n = 65. Datos adaptados de \cite {Almstetter2012}}{figure.1.7}{}}
\citation{Miyazaki2017}
\citation{Dubois2017}
\citation{Nasstrom2017}
\citation{Luies2017}
\citation{Luies2017a}
\citation{Bressanello2018}
\@writefile{toc}{\contentsline {subsection}{\numberline {1.1.4}An\'alisis de datos $GC\times GC$ en metabol\'omica}{13}{subsection.1.1.4}}
\newlabel{sec:Chemometrics}{{\M@TitleReference {1.1.4}{An\'alisis de datos $GC\times GC$ en metabol\'omica}}{13}{An\'alisis de datos $GC\times GC$ en metabol\'omica}{subsection.1.1.4}{}}
\citation{Savitzky1964}
\citation{Kong2005,Trudgett2011}
\citation{Eilers2003}
\citation{Dhakshimanoorthy2016}
\citation{Zhang2010}
\citation{Liu2014}
\citation{BecknerWhitener2016}
\citation{Zhang2008}
\citation{Kim2011,Jeong2013}
\citation{Nasstrom2017}
\newlabel{eq:PCA}{{1.2}{15}{An\'alisis de datos $GC\times GC$ en metabol\'omica}{equation.1.1.2}{}}
\citation{Wold1987}
\citation{Oliver1998}
\citation{Koek2011}
\citation{Straczynski2018,Putz2018}
\citation{Izadmanesh2017}
\citation{Goodacre2005}
\citation{Reichenbach2004}
\@writefile{toc}{\contentsline {section}{\numberline {1.2}Estado del arte}{16}{section.1.2}}
\citation{Pluskal2010}
\citation{Benton2010}
\citation{Wang2011,Zhang2008,Pierce2005,Fraga2001}
\citation{Hoffmann2014}
\citation{Castillo2011}
\citation{Kim2014,Wang2011,Kim2011a,Jeong2012,Koo2013,Kim2012,Kim2012a,Jeong2011,Koo2009,Koo2014}
\@writefile{toc}{\contentsline {section}{\numberline {1.3}Planteamiento del problema}{18}{section.1.3}}
\@writefile{toc}{\contentsline {section}{\numberline {1.4}Justificaci\'on}{18}{section.1.4}}
\@writefile{toc}{\contentsline {section}{\numberline {1.5}Objetivos}{18}{section.1.5}}
\@writefile{toc}{\contentsline {subsection}{\numberline {1.5.1}Objetivo general}{18}{subsection.1.5.1}}
\@writefile{toc}{\contentsline {subsection}{\numberline {1.5.2}Objetivos espec\'ificos}{18}{subsection.1.5.2}}
\@writefile{lof}{\addvspace {10pt}}
\@writefile{lot}{\addvspace {10pt}}
\@writefile{toc}{\contentsline {chapter}{\chapternumberline {2}Implementaci\'on del \textit  {Software}}{21}{chapter.2}}
\@writefile{toc}{\contentsline {section}{\numberline {2.1}Flujo de trabajo resumido}{21}{section.2.1}}
\@writefile{lof}{\contentsline {figure}{\numberline {2.1}{\ignorespaces Diagrama de flujo de an\'alisis de datos de GCxGC-MS que comprenden dos principales etapas, el preprocesamiento, y el an\'alisis multivariado. El diagrama empieza con la importaci\'on de datos crudos, despu\'es estos pueden ser preprocesados mediante tres t\'ecnicas, suavizado, alineamiento de picos, y por \'ultimo, realizar un an\'alisis multivariado.}}{22}{figure.2.1}}
\newlabel{fig:workflow}{{\M@TitleReference {2.1}{Diagrama de flujo de an\'alisis de datos de GCxGC-MS que comprenden dos principales etapas, el preprocesamiento, y el an\'alisis multivariado. El diagrama empieza con la importaci\'on de datos crudos, despu\'es estos pueden ser preprocesados mediante tres t\'ecnicas, suavizado, alineamiento de picos, y por \'ultimo, realizar un an\'alisis multivariado.}}{22}{Diagrama de flujo de an\'alisis de datos de GCxGC-MS que comprenden dos principales etapas, el preprocesamiento, y el an\'alisis multivariado. El diagrama empieza con la importaci\'on de datos crudos, despu\'es estos pueden ser preprocesados mediante tres t\'ecnicas, suavizado, alineamiento de picos, y por \'ultimo, realizar un an\'alisis multivariado}{figure.2.1}{}}
\@writefile{toc}{\contentsline {section}{\numberline {2.2}Flujo de trabajo detallado}{22}{section.2.2}}
\@writefile{toc}{\contentsline {subsection}{\numberline {2.2.1}Instalaci\'on}{22}{subsection.2.2.1}}
\citation{Skov2008}
\@writefile{lof}{\contentsline {figure}{\numberline {2.2}{\ignorespaces Descripci\'on de las funcionalidades disponibles en el paquete \textit  {RGCxGC}. El nombre de las funcionalidades se encuentra en cada recuadro, mientas en nombre de las rutinas en el paquete est\'an encerradas en par\'entesis.}}{23}{figure.2.2}}
\newlabel{fig:functions}{{\M@TitleReference {2.2}{Descripci\'on de las funcionalidades disponibles en el paquete \textit  {RGCxGC}. El nombre de las funcionalidades se encuentra en cada recuadro, mientas en nombre de las rutinas en el paquete est\'an encerradas en par\'entesis.}}{23}{Descripci\'on de las funcionalidades disponibles en el paquete \textit {RGCxGC}. El nombre de las funcionalidades se encuentra en cada recuadro, mientas en nombre de las rutinas en el paquete est\'an encerradas en par\'entesis}{figure.2.2}{}}
\@writefile{toc}{\contentsline {subsection}{\numberline {2.2.2}Importaci\'on}{23}{subsection.2.2.2}}
\citation{Reichenbach2004}
\@writefile{toc}{\contentsline {subsection}{\numberline {2.2.3}Visualizaci\'on}{24}{subsection.2.2.3}}
\@writefile{toc}{\contentsline {subsection}{\numberline {2.2.4}Preprocesamiento de se\~nal}{24}{subsection.2.2.4}}
\citation{Eilers2004}
\citation{Eilers2003}
\@writefile{toc}{\contentsline {subsubsection}{\numberline {2.2.4.1}Correcci\'on de l\'inea base}{25}{subsubsection.2.2.4.1}}
\@writefile{toc}{\contentsline {subsubsection}{\numberline {2.2.4.2}Suavizado}{25}{subsubsection.2.2.4.2}}
\citation{Zhang2008}
\citation{Tomasi2004}
\@writefile{toc}{\contentsline {subsubsection}{\numberline {2.2.4.3}Alinemiento de picos}{26}{subsubsection.2.2.4.3}}
\citation{Wold1987}
\@writefile{toc}{\contentsline {subsubsection}{\numberline {2.2.4.4}Uni\'on de chromatogramas}{27}{subsubsection.2.2.4.4}}
\@writefile{toc}{\contentsline {subsection}{\numberline {2.2.5}An\'alisis multivariado}{27}{subsection.2.2.5}}
\@writefile{lot}{\contentsline {table}{\numberline {2.1}{\ignorespaces Metadatos de los cromatogramas seleccionados provenientes de la base de datos MetaboLights, con el n\'umero de acceso MTBLS579.}}{28}{table.2.1}}
\newlabel{tab:metadata}{{\M@TitleReference {2.1}{Metadatos de los cromatogramas seleccionados provenientes de la base de datos MetaboLights, con el n\'umero de acceso MTBLS579.}}{28}{Metadatos de los cromatogramas seleccionados provenientes de la base de datos MetaboLights, con el n\'umero de acceso MTBLS579}{table.2.1}{}}
\@writefile{toc}{\contentsline {subsubsection}{\numberline {2.2.5.1}\textit  {Scores}}{28}{subsubsection.2.2.5.1}}
\@writefile{lot}{\contentsline {table}{\numberline {2.2}{\ignorespaces Matriz de \textit  {scores} obtenida a partir de MPCA de los cromatogramas seleccionados. El an\'alisis fue llevado a cabo con datos centrados a la media y escalados a la unidad de varianza}}{29}{table.2.2}}
\newlabel{tab:scores}{{\M@TitleReference {2.2}{Matriz de \textit  {scores} obtenida a partir de MPCA de los cromatogramas seleccionados. El an\'alisis fue llevado a cabo con datos centrados a la media y escalados a la unidad de varianza}}{29}{Matriz de \textit {scores} obtenida a partir de MPCA de los cromatogramas seleccionados. El an\'alisis fue llevado a cabo con datos centrados a la media y escalados a la unidad de varianza}{table.2.2}{}}
\@writefile{toc}{\contentsline {subsubsection}{\numberline {2.2.5.2}\textit  {Loadings}}{29}{subsubsection.2.2.5.2}}
\bibstyle{elsarticle-harv}
\bibdata{thesisbiblio}
\bibcite{Almstetter2012}{{1}{2012}{{Almstetter et~al.}}{{Almstetter, Oefner, y Dettmer}}}
\bibcite{Amigo2010}{{2}{2010}{{Amigo et~al.}}{{Amigo, Skov, y Bro}}}
\bibcite{BecknerWhitener2016}{{3}{2016}{{{Beckner Whitener} et~al.}}{{{Beckner Whitener}, Stanstrup, Panzeri, Carlin, Divol, {Du Toit}, y Vrhovsek}}}
\bibcite{Benton2010}{{4}{2010}{{Benton et~al.}}{{Benton, Want, y Ebbels}}}
\bibcite{Bressanello2018}{{5}{2018}{{Bressanello et~al.}}{{Bressanello, Liberto, Collino, Chiazza, Mastrocola, Reichenbach, Bicchi, y Cordero}}}
\bibcite{Nobeli2003}{{6}{2003}{{C et~al.}}{{C, Ponstingl, Krissinel, y Thornton}}}
\bibcite{Castillo2011}{{7}{2011}{{Castillo et~al.}}{{Castillo, Mattila, Miettinen, Ore{\v {s}}i{\v {c}}, y Hy{\"{o}}tyl{\"{a}}inen}}}
\bibcite{Covington2017}{{8}{2016}{{Covington et~al.}}{{Covington, McLean, y Bachmann}}}
\bibcite{Cuzuel2017}{{9}{2017}{{Cuzuel et~al.}}{{Cuzuel, Sizun, Cognon, Rivals, Heulard, Thi{\'{e}}baut, y Vial}}}
\@writefile{toc}{\contentsline {chapter}{Bibliograf\'{\i }a}{31}{section*.3}}
\bibcite{DelaMata2017}{{10}{2017}{{de~la Mata et~al.}}{{de~la Mata, McQueen, Nam, y Harynuk}}}
\bibcite{Dhakshimanoorthy2016}{{11}{2016}{{Dhakshimanoorthy et~al.}}{{Dhakshimanoorthy, Dinh, Skolnick, y Styczynki}}}
\bibcite{Dubois2017}{{12}{2017}{{Dubois et~al.}}{{Dubois, Perrault, Stefanuto, Koschinski, Edwards, McGregor, y Focant}}}
\bibcite{Eilers2003}{{13}{2003}{{Eilers}}{{}}}
\bibcite{Eilers2004}{{14}{2004}{{Eilers}}{{}}}
\bibcite{Fraga2001}{{15}{2001}{{Fraga et~al.}}{{Fraga, Prazen, y Synovec}}}
\bibcite{Garcia2017}{{16}{2017}{{Garc{\'{i}}a et~al.}}{{Garc{\'{i}}a, Godzien, L{\'{o}}pez-Gonz{\'{a}}lvez, y Barbas}}}
\bibcite{Giddings1995}{{17}{1995}{{Giddings}}{{}}}
\bibcite{Golla2017}{{18}{2017}{{Golla et~al.}}{{Golla, Golla, Krausz, Manna, Simillion, Beyo\IeC {\u g}lu, Idle, y Gonzalez}}}
\bibcite{Gomez-Cabrero2014}{{19}{2014}{{Gomez-Cabrero et~al.}}{{Gomez-Cabrero, Abugessaisa, Maier, Teschendorff, Merkenschlager, Gisel, Ballestar, Bongcam-Rudloff, Conesa, y Tegn{\'{e}}r}}}
\bibcite{Goodacre2005}{{20}{2005}{{Goodacre}}{{}}}
\bibcite{Goodacre2007}{{21}{2007}{{Goodacre}}{{}}}
\bibcite{Gowda2008}{{22}{2008}{{Gowda et~al.}}{{Gowda, Zhang, Gu, Asiago, Shanaiah, y Raftery}}}
\bibcite{Hoffmann2014}{{23}{2014}{{Hoffmann et~al.}}{{Hoffmann, Wilhelm, Doebbe, Niehaus, y Stoye}}}
\bibcite{Horning1971}{{24}{1971}{{Horning y Horning}}{{}}}
\bibcite{Izadmanesh2017}{{25}{2017}{{Izadmanesh et~al.}}{{Izadmanesh, Garreta-Lara, Ghasemi, Lacorte, Matamoros, y Tauler}}}
\bibcite{James1952}{{26}{1952}{{James y Martin}}{{}}}
\bibcite{James1952a}{{27}{1952}{{James et~al.}}{{James, Martin, y Smith}}}
\bibcite{Jeong2011}{{28}{2011}{{Jeong et~al.}}{{Jeong, Shi, Zhang, Kim, y Shen}}}
\bibcite{Jeong2012}{{29}{2012}{{Jeong et~al.}}{{Jeong, Shi, Zhang, Kim, y Shen}}}
\bibcite{Jeong2013}{{30}{2013}{{Jeong et~al.}}{{Jeong, Zhang, Shi, Kim, y Shen}}}
\bibcite{Kim2010}{{31}{2010}{{Kim et~al.}}{{Kim, Choi, y Verpoorte}}}
\bibcite{Kim2011}{{32}{2011{a}}{{Kim et~al.}}{{Kim, Fang, Wang, Jeong, y Zhang}}}
\bibcite{Kim2011a}{{33}{2011{b}}{{Kim et~al.}}{{Kim, Koo, Fang, y Zhang}}}
\bibcite{Kim2012}{{34}{2012{a}}{{Kim et~al.}}{{Kim, Koo, Jeong, Wu, Shi, y Zhang}}}
\bibcite{Kim2012a}{{35}{2012{b}}{{Kim et~al.}}{{Kim, Koo, Wei, y Zhang}}}
\bibcite{Kim2014}{{36}{2014}{{Kim et~al.}}{{Kim, Ouyang, Jeong, Shen, y Zhang}}}
\bibcite{Koek2011}{{37}{2011}{{Koek et~al.}}{{Koek, Jellema, van~der Greef, Tas, y Hankemeier}}}
\bibcite{Kong2005}{{38}{2005}{{Kong et~al.}}{{Kong, Ye, Lu, Guo, Tian, y Xu}}}
\bibcite{Koo2013}{{39}{2013}{{Koo et~al.}}{{Koo, Kim, y Zhang}}}
\bibcite{Koo2009}{{40}{2009}{{Koo et~al.}}{{Koo, Wei, Shi, Zhou, Kim, y Zhang}}}
\bibcite{Koo2014}{{41}{2014}{{Koo et~al.}}{{Koo, Yao, Zhang, y Kim}}}
\bibcite{Lian2018}{{42}{2018}{{Lian et~al.}}{{Lian, Xia, Yang, Zhou, Gong, Gui, Mao, Wang, Li, Huang, Qi, y Xie}}}
\bibcite{Liu2014}{{43}{2014}{{Liu et~al.}}{{Liu, Zhang, Liang, Sousa, Yun, y Yu}}}
\bibcite{Liu1991}{{44}{1991}{{Liu y Phillips}}{{}}}
\bibcite{Luies2017}{{45}{2017{a}}{{Luies et~al.}}{{Luies, Mienie, Motshwane, Ronacher, Walzl, y Loots}}}
\bibcite{Luies2017a}{{46}{2017{b}}{{Luies et~al.}}{{Luies, Reenen, Ronacher, Walzl, y Loots}}}
\bibcite{McCartney2018}{{47}{2018}{{McCartney et~al.}}{{McCartney, Vignoli, Biganzoli, Love, Tenori, Luchinat, y {Di Leo}}}}
\bibcite{Miura2012}{{48}{2012}{{Miura et~al.}}{{Miura, Fujimura, y Wariishi}}}
\bibcite{Miyazaki2017}{{49}{2017}{{Miyazaki et~al.}}{{Miyazaki, Okada, Yamashita, y Miyazaki}}}
\bibcite{Murray2012}{{50}{2012}{{Murray}}{{}}}
\bibcite{Nasstrom2017}{{51}{2017}{{N{\"{a}}sstr{\"{o}}m et~al.}}{{N{\"{a}}sstr{\"{o}}m, Parry, Thieu, Maude, de~Jong, Fukushima, Rzhepishevska, Marks, Panzner, Im, Jeon, Park, Chaudhury, Ghose, Samad, Van, Johansson, Dondorp, Thwaites, Faiz, Antti, y Baker}}}
\bibcite{Nicholson1999}{{52}{1999}{{Nicholson et~al.}}{{Nicholson, Lindon, y Holmes}}}
\bibcite{Oliver1998}{{53}{1998}{{Oliver et~al.}}{{Oliver, B{\"{o}}ttcher, Neumann, Oliver, Winson, Kell, Baganz, Fiehn, Kopka, D{\"{o}}rmann, Altmann, Trethewey, Willmitzer, Dunn, Roepenack-Lahaye, Degenkolb, Zerjeski, Franz, Roth, Wessjohann, Schmidt, Scheel, Clemens, B{\"{o}}ttcher, Roepenack-Lahaye, Schmidt, Schmotz, Neumann, Scheel, Clemens, Tikunov, Lommen, Vos, Verhoeven, Bino, Hall, Bovy, Smith, Want, O'Maille, Abagyan, Siuzdak, Katajamaa, Oresic, Katajamaa, Oresic, Stolt, Torgrip, Lindberg, Csenki, Kolmert, Schuppe-Koistinen, Jacobsson, Aberg, Torgrip, Kolmert, Schuppe-Koistinen, Lindberg, Lange, Gr{\"{o}}pl, Reinert, Kohlbacher, Hildebrandt, Du, Kibbe, Lin, Conrad, Leichtle, Hagehulsmann, Diederichs, Baumann, Thiery, Sch{\"{u}}tte, McLerran, Feng, Semmes, Cazares, Randolph, Nordstr{\"{o}}m, O'Maille, Qin, Siuzdak, Andreev, Rejtar, Chen, Moskovets, Ivanov, Karger, Daubechies, Rijsbergen, y Yu}}}
\bibcite{Ouyang2018}{{54}{2018}{{Ouyang et~al.}}{{Ouyang, Tong, Luo, Kong, Xu, Yin, y Xu}}}
\bibcite{Palsson2006}{{55}{2006}{{Palsson}}{{}}}
\bibcite{Mathew2013}{{56}{2012}{{Patti et~al.}}{{Patti, Yanes, y Siuzdak}}}
\bibcite{Pegolo2017}{{57}{2017}{{Pegolo et~al.}}{{Pegolo, Stocco, Mele, Schiavon, Bittante, y Cecchinato}}}
\bibcite{Pierce2005}{{58}{2005}{{Pierce et~al.}}{{Pierce, Wood, Wright, y Synovec}}}
\bibcite{Pluskal2010}{{59}{2010}{{Pluskal et~al.}}{{Pluskal, Castillo, Villar-Briones, y Ore{\v {s}}i{\v {c}}}}}
\bibcite{Poole2012}{{60}{2012}{{Poole}}{{}}}
\bibcite{Putz2018}{{61}{2018}{{Putz et~al.}}{{Putz, Piper, Casilli, {Radler de Aquino Neto}, Pigozzo, y Thevis}}}
\bibcite{Reichenbach2004}{{62}{2004}{{Reichenbach et~al.}}{{Reichenbach, Ni, Kottapalli, y Visvanathan}}}
\bibcite{Saito2006}{{63}{2006}{{Saito et~al.}}{{Saito, Dixon, y Willmitzer}}}
\bibcite{Savitzky1964}{{64}{1964}{{Savitzky y Golay}}{{}}}
\bibcite{Schoenmakers2000}{{65}{2000}{{Schoenmakers et~al.}}{{Schoenmakers, Oomen, Blomberg, Genuit, y van Velzen}}}
\bibcite{Shokralla2012}{{66}{2012}{{Shokralla et~al.}}{{Shokralla, Spall, Gibson, y Hajibabaei}}}
\bibcite{Skov2008}{{67}{2008}{{Skov y Bro}}{{}}}
\bibcite{Straczynski2018}{{68}{2018}{{Str{\c {a}}czy{\'{n}}ski y Ligor}}{{}}}
\bibcite{Thunig2011}{{69}{2011}{{Thunig et~al.}}{{Thunig, Hansen, y Janfelt}}}
\bibcite{Tomasi2004}{{70}{2004}{{Tomasi et~al.}}{{Tomasi, {Van Den Berg}, y Andersson}}}
\bibcite{Tranchida2018}{{71}{2018}{{Tranchida}}{{}}}
\bibcite{Trudgett2011}{{72}{2011}{{Trudgett et~al.}}{{Trudgett, Guiochon, y Shalliker}}}
\bibcite{Tugizimana2018}{{73}{2018}{{Tugizimana et~al.}}{{Tugizimana, Mhlongo, Piater, y Dubery}}}
\bibcite{Turi2018a}{{74}{2018}{{Turi et~al.}}{{Turi, Romick-Rosendale, Ryckman, y Hartert}}}
\bibcite{Urbanczyk-Wochniak2003}{{75}{2003}{{Urbanczyk-Wochniak et~al.}}{{Urbanczyk-Wochniak, Leudemann, Kopka, Selbig, Roessner-Tunali, Willmitzer, y Fernie}}}
\bibcite{Villermaux1987}{{76}{1987}{{Villermaux}}{{}}}
\bibcite{Wang2011}{{77}{2011}{{Wang et~al.}}{{Wang, Fang, Heim, Bogdanov, Pugh, Libardoni, y Zhang}}}
\bibcite{Wang2017}{{78}{2017}{{Wang et~al.}}{{Wang, Han, Hardie, Yang, Pan, y Borchers}}}
\bibcite{Wilson2011}{{79}{2011}{{Wilson et~al.}}{{Wilson, Siegler, Hoggard, Fitz, Nadeau, y Synovec}}}
\bibcite{Wold1987}{{80}{1987}{{Wold et~al.}}{{Wold, Geladi, Esbensen, y {\"{O}}hman}}}
\bibcite{Wong2017}{{81}{2017}{{Wong et~al.}}{{Wong, Perlmutter, y Marriott}}}
\bibcite{Yang2018}{{82}{2018}{{Yang et~al.}}{{Yang, Zhao, Fang, Li, Li, y Ta}}}
\bibcite{Yi2016}{{83}{2016}{{Yi et~al.}}{{Yi, Dong, Yun, Deng, Ren, Liu, y Liang}}}
\bibcite{Zhang2012}{{84}{2012}{{Zhang et~al.}}{{Zhang, Sun, Wang, Han, y Wang}}}
\bibcite{Zhang2008}{{85}{2008}{{Zhang et~al.}}{{Zhang, Huang, Regnier, y Zhang}}}
\bibcite{Zhang2007}{{86}{2007}{{Zhang et~al.}}{{Zhang, Yap, Li, Guo, y Chen}}}
\bibcite{Zhang2010}{{87}{2010}{{Zhang et~al.}}{{Zhang, Chen, y Liang}}}
\memsetcounter{lastsheet}{46}
\memsetcounter{lastpage}{40}
